{
  "spider": "./PantyHose/spider/FTY.jar",
  "wallpaper": "./Lingerie/streetlight.jpg",
  "lives": [
    {
      "name": "BOBO_live",
      "type": 0,
      "url": "./Garter/BOBOLIVE.TXT",
      "playerType": 1,
      "ua": "okhttp/3.15",
      "epg": "http://epg.112114.xyz/?ch={name}&date={date}",
      "logo": "https://epg.112114.xyz/logo/{name}.png"
    },
    {
      "name": "范明明LIVE",
      "type": 0,
      "url": "https://live.fanmingming.com/tv/m3u/ipv6.m3u",
      "playerType": 1,
      "ua": "okhttp/3.15",
      "epg": "http://epg.112114.xyz/?ch={name}&date={date}",
      "logo": "https://epg.112114.xyz/logo/{name}.png"
    },
    {
      "name": "小米IPv4",
      "type": 0,
      "url": "http://124.223.177.85:88/svip/直播挺快.txt",
      "ua": "okhttp/3.12.13",
      "epg": "http://epg.112114.xyz/?ch={name}&date={date}",
      "logo": "https://epg.112114.xyz/logo/{name}.png"
    },    
    {
      "name": "云星v4",
      "type": 0,
      "url": "http://itvbox.cc/tvbox/zhibo/live.txt",
      "playerType": 1,
      "ua": "okhttp/3.15",
      "epg": "http://epg.112114.xyz/?ch={name}&date={date}",
      "logo": "https://epg.112114.xyz/logo/{name}.png"
    },
    {
      "name": "云星v6",
      "type": 0,
      "url": "https://my5353.com/v6zby",
      "playerType": 1,
      "ua": "okhttp/3.15",
      "epg": "http://epg.112114.xyz/?ch={name}&date={date}",
      "logo": "https://epg.112114.xyz/logo/{name}.png"
    },
    {
      "name": "骚零LIVE",
      "type": 0,
      "url": "https://mirror.ghproxy.com/raw.githubusercontent.com/dxawi/0/main/tvlive.txt",
      "playerType": 1,
      "ua": "okhttp/3.15",
      "epg": "http://epg.112114.xyz/?ch={name}&date={date}",
      "logo": "https://epg.112114.xyz/logo/{name}.png"
    },
    {
      "name": "南风LIVE",
      "type": 0,
      "playerType": 1,
      "url": "https://agit.ai/Yoursmile7/TVBox/raw/branch/master/live.txt",
      "epg": "https://epg.112114.xyz/?ch={name}&date={date}",
      "logo": "https://epg.112114.xyz/logo/{name}.png"
    },
    {
      "name": "俊于LIVE",
      "type": 0,
      "playerType": 1,
      "url": "http://home.jundie.top:81/Cat/tv/live.txt",
      "epg": "http://epg.112114.xyz/?ch={name}&date={date}",
      "logo": "https://epg.112114.xyz/logo/{name}.png",
      "ua": "Mozilla/5.0 (Windows NT 10.0; Win64; x64) AppleWebKit/537.36 (KHTML, like Gecko) Chrome/108.0.0.0 Safari/537.36"
    },
    {
      "name": "蜂蜜LIVE",
      "type": 1,
      "playerType": 1,
      "url": "https://mirror.ghproxy.com/https://raw.githubusercontent.com/FongMi/CatVodSpider/main/json/live.json",
      "epg": "http://epg.112114.xyz/?ch={name}&date={date}",
      "logo": "https://epg.112114.xyz/logo/{name}.png",
      "ua": "Mozilla/5.0 (Windows NT 10.0; Win64; x64) AppleWebKit/537.36 (KHTML, like Gecko) Chrome/108.0.0.0 Safari/537.36"
    },
    {
      "name": "肥猫LIVE",
      "type": 0,
      "playerType": 1,
      "url": "http://我不是.肥猫.live/TV/tvzb.txt",
      "ua": "okhttp/3.12.13",
      "epg": "http://epg.112114.xyz/?ch={name}&date={date}",
      "logo": "https://epg.112114.xyz/logo/{name}.png"
    },
    {
      "name": "YueChan_ipv6",
      "type": 0,
      "url": "https://mirror.ghproxy.com/https://raw.githubusercontent.com/YueChan/Live/main/IPTV.m3u",
      "playerType": 1,
      "ua": "okhttp/3.15",
      "epg": "http://epg.112114.xyz/?ch={name}&date={date}",
      "logo": "https://epg.112114.xyz/logo/{name}.png"
    }
  ],
  
  "sites": [
    {
      "key": "豆豆",
      "name": "【小波丁丁蕤】","searchable": 0,"quickSearch": 0,"filterable": 0,"type": 3,
      "api": "csp_DouDou"
    },
/////////////////////////////////////////////////////////
    {
      "key": "非凡",
      "name": "🛒非凡┃采集",
      "type": 0,"searchable": 1,"changeable": 1,
      "api": "http://cj.ffzyapi.com/api.php/provide/vod/at/xml/",
      "jar": "https://hub.gitmirror.com/https://raw.githubusercontent.com/lllyin/assets/master/fm.png;md5;945ad30d5255359385ba59b8fb061bb7",
      "categories": 
      ["国产动漫","日韩动漫","国产剧","韩国剧","日本剧","电影片","连续剧","综艺片","动漫片","动作片","喜剧片",
       "爱情片","科幻片","恐怖片","剧情片","战争片","香港剧","欧美剧","记录片","台湾剧","海外剧","泰国剧","大陆综艺","港台综艺",
       "日韩综艺","欧美综艺","欧美动漫","港台动漫","海外动漫"]
    },
    {
      "key": "暴风采集",
      "name": "🛒暴风┃采集",
      "type": 1,"playUrl": "",
      "api": "https://app.bfzyapi.com/api.php/provide/vod/",
      "categories": 
      ["国产剧","国产动漫","动作片","科幻片","剧情片","喜剧片","爱情片","恐怖片","战争片","香港剧","台湾剧","日本剧","欧美剧","泰国剧",
      "日本动漫","综艺频道","大陆综艺","港台综艺","日本综艺","新马泰综艺","纪录片"]
    },
    {
      "key": "量子资源",
      "name": "🛒量子┃采集",
      "type": 1,"searchable": 1,"quickSearch": 1,
      "api": "http://cj.lziapi.com/api.php/provide/vod/",
      "categories": ["国产剧","国产动漫","泰国剧","台湾剧","香港剧","欧美剧","韩国剧","日本剧","动漫","体育","剧情片","动作片","爱情片","喜剧片"]
    },
    {
      "key": "豪华",
      "name": "🛒豪华┃采集",
      "type": 1,"searchable": 1,"quickSearch": 0,"filterable": 1,
      "api": "https://hhzyapi.com/api.php/provide/vod/",
      "categories": 
      ["内地剧","动作片","科幻片","战争片","喜剧片","爱情片","恐怖片","犯罪片","剧情片","冒险片","记录片","韩剧","香港剧","台湾剧","欧美剧","日剧",
      "马泰剧","体育赛事","综艺","动画片","中国动漫","日本动漫","欧美动漫"]
    },
    {
      "key": "虎牙",
      "name": "🛒虎牙┃采集",
      "type": 1,"searchable": 1,"quickSearch": 1,
      "api": "https://www.huyaapi.com/api.php/provide/vod/from/hym3u8",
      "categories": 
      ["内地剧","动作片","科幻片","战争片","喜剧片","爱情片","恐怖片","犯罪片","剧情片","冒险片","记录片","韩剧","香港剧",
      "台湾剧","欧美剧","日剧","马泰剧","体育赛事","综艺","动画片","中国动漫","日本动漫","欧美动漫"]
    },
    {
      "key": "索尼资源",
      "name": "🛒索尼1┃采集",
      "type": 1,"searchable": 1,"quickSearch": 1,
      "api": "https://suoniapi.com/api.php/provide/vod/from/snm3u8/",
      "categories": 
      ["动作片","喜剧片","爱情片","科幻片","恐怖片","剧情片","战争片","国产剧","欧美剧","韩剧","日剧","港剧","台剧",
      "泰剧","海外剧","纪录片","大陆综艺","日韩综艺","港台综艺","欧美综艺","国产动漫","日韩动漫","欧美动漫","动画片","港台动漫",
      "海外动漫","演唱会","体育赛事","篮球","足球","预告片","斯诺克","影视解说"]
    },





//////////////////////////////////////////////////////////
    {
        "key": "好趣网",
        "name": "📺好趣┃快线",
        "type": 3,
        "api": "./PantyHose/frame/drpy2.min.js",
        "ext": "./PantyHose/lib/好趣网.js"
    },
    {
      "key": "cctv",
      "name": "📺央视｜快线",
      "type": 3,
      "api": "csp_CCTV",
      "searchable": 0,
      "filterable": 0,
      "jar":"./PantyHose/spider/HCCX.jar",
      "ext": "./PantyHose/lib/央视大全.json"
    },
    {
      "key": "新6V",
      "name": "🗼新6V┃快线",
      "searchable": 1,"quickSearch": 1,"changeable": 0,"type": 3,
      "api": "csp_SixV",
      "ext": "http://www.xb6v.com/"
    },
    {
      "key": "drpy_js_voflix",
      "name": "🦅voflix┃快线",
      "type": 3,
      "api": "./PantyHose/frame/drpy2.min.js",
      "jar": "./PantyHose/spider/PG.jar",
      "ext": "./PantyHose/lib/voflix.js"
    },
    {
      "key": "drpy_js_两个BT",
      "name": "🐚两个BT┃快线",
      "type": 3,
      "api": "./PantyHose/frame/drpy2.min.js",
      "jar": "./PantyHose/spider/PG.jar",
      "ext": "./PantyHose/lib/两个BT.js"
    },
    {
      "key": "drpy_js_北极狐[V2]",
      "name": "🦊北极狐┃快线",
      "type": 3,
      "api": "./PantyHose/frame/drpy2.min.js",
      "jar": "./PantyHose/spider/PG.jar",
      "ext": "./PantyHose/lib/北极狐[V2].js"
    },
    {
      "key": "drpy_js_奈飞狗[V2]",
      "name": "🐕奈飞狗┃快线",
      "type": 3,
      "api": "./PantyHose/frame/drpy2.min.js",
      "jar": "./PantyHose/spider/PG.jar",
      "ext": "./PantyHose/lib/奈飞狗[V2].js"
    },
    {
      "key": "drpy_js_大米星球",
      "name": "🍚大米┃快线",
      "type": 3,
      "api": "./PantyHose/frame/drpy2.min.js",
      "jar": "./PantyHose/spider/PG.jar",
      "ext": "./PantyHose/lib/大米星球.js"
    },
    {
      "key": "drpy_js_咕噜[V2]",
      "name": "⚽咕噜┃快线",
      "type": 3,
      "api": "./PantyHose/frame/drpy2.min.js",
      "jar": "./PantyHose/spider/PG.jar",
      "ext": "./PantyHose/lib/咕噜[V2].js"
    },
    {
      "key": "drpy_js_曲奇影视[V2]",
      "name": "🍪曲奇┃快线",
      "type": 3,
      "api": "./PantyHose/frame/drpy2.min.js",
      "jar": "./PantyHose/spider/PG.jar",
      "ext": "./PantyHose/lib/曲奇影视[V2].js"
    },
    {
      "key": "drpy_js_思古影视[V2]",
      "name": "💗思古┃快线",
      "type": 3,
      "api": "./PantyHose/frame/drpy2.min.js",
      "jar": "./PantyHose/spider/PG.jar",
      "ext": "./PantyHose/lib/思古影视[V2].js"
    },
    {
      "key": "drpy_js_酷6网",
      "name": "♣酷6网┃聚合",
      "type": 3,"changeable": 0,
      "api": "./PantyHose/frame/drpy2.min.js",
      "jar": "./PantyHose/spider/PG.jar",
      "ext": "./PantyHose/lib/酷6网.js"
    },
    {
      "key": "茶杯",
      "name": "🦊茶杯狐┃快线",
      "type": 3,"searchable": 1,"quickSearch": 1,"changeable": 1,
      "api": "csp_XBPQ",
      "jar":"./PantyHose/spider/HCCX.jar",
      "ext": "./PantyHose/lib/茶杯狐.json"
    },
    {
      "key": "csp_黑狐",
      "name": "🦂黑狐┃追剧",
      "type": 3,
      "api": "csp_XBPQ","jar":"./PantyHose/spider/HCCX.jar",
      "searchable": 1,
      "quickSearch": 1,
      "filterable": 1,
      "ext": "./PantyHose/lib/黑狐影视.json"
    },
    {
      "key": "南瓜",
      "name": "🎃南瓜┃App",
      "type": 3,
      "api": "csp_NanGua",
      "playerType": 2,
      "searchable": 1,
      "quickSearch": 1,
      "changeable": 1
    },
    {
      "key": "酷看",
      "name": "💡酷看┃App",
      "type": 3,
      "api": "csp_Kkys",
      "searchable": 1,
      "quickSearch": 1,
      "changeable": 1
    },    
    {
      "key": "畅梦",
      "name": "💋畅梦┃快线",
      "type": 3,
      "api": "./PantyHose/frame/drpy2.min.js",
      "ext": "./PantyHose/lib/changmeng.js"
    },
    {
      "key": "4KHDR",
	      "name": "✡️HDR┃快线",
      "type": 3,
      "searchable": 1,
      "quickSearch": 1,
      "changeable": 0,
      "api": "./PantyHose/frame/drpy2.min.js",
      "ext": "./PantyHose/lib/4khdr.js"
    },
    {
        "key":"csp_77",
	        "name":"7️⃣七七┃App","type":3,"searchable":1,"quickSearch":1,"filterable":1,
        "api":"csp_Kunyu77"
    },
    {
        "key":"csp_WoGG",
        "name": "🐨哥哥┃4K",
        "type": 3,"searchable":1,"quickSearch":1,"filterable":1,
        "api": "csp_WoGG"
    },
    {
      "key": "YGP",
      "name": "🚀叨观┃App","type": 3,"searchable": 0,"quickSearch": 0,"changeable": 0,
      "api": "csp_YGP"
    },
    {
      "key": "DiDuan",
      "name": "👒低端┃App","type": 3,"playerType": "2","searchable": 1,"quickSearch": 1,"changeable": 1,
      "api": "csp_Ddrk"
    },
    {
      "key": "csp_SP33",
      "name": "☘三三┃App",
      "type": 3,"searchable": 1,"quickSearch": 1,"filterable": 1,"changeable": 0,
      "api": "csp_SP33"
    },
    {
      "key": "毛驴影视",
      "name": "🐴毛驴┃App",
      "type": 3,"searchable": 1,"quickSearch": 1,"changeable": 1,
      "api": "csp_MLYS",
      "ext": "https://www.maolvys.com/"
    },
    {
      "key": "csp_Bttoo",
      "name": "🌐比特┃App",
      "type": 3,"searchable": 1,"quickSearch": 1,"changeable": 1,
      "api": "csp_Bttwoo"
    },
    {
      "key": "77",
      "name": "🍏苹果┃App",
      "type": 3,"searchable": 1,"quickSearch": 1,"changeable": 1,
      "api": "csp_Kunyu77"
    },
    {
      "key": "一起看 ",
      "name": "🍿一起看┃App",
      "type": 3,"searchable": 1,"quickSearch": 1,"changeable": 1,
      "api": "csp_YQKan"
    },
    {
      "key": "Lib",
      "name": "🎥利播┃站点",
      "type": 3,"searchable": 1,"quickSearch": 1,"changeable": 1,
      "api": "csp_Libvio",
      "ext": "https://www.libvio.pro/"
    },    
    {
      "key": "萌米",
      "name": "👀萌米┃App",
      "type": 3,
      "api": "csp_AppMao",
      "searchable": 1,
      "quickSearch": 1,
      "changeable": 1,
      "ext": "FbjKZ1gO+9u81wMIxzHg+7x1Oep4CIFuZAlCy8a4qCgjGLacnxDo6wiBr66jP3X8J2mRx31u1XgkTTVrENVjfhQKUN2Yi12XNWQSlmVZxLtiSaSiZG0xf1Hw"
    },
    {
      "key": "橘子",
      "name": "🍊橘子┃APP",
      "type": 3,"searchable": 1,"quickSearch": 1,"changeable": 1,
      "api": "csp_AppMao",
      "ext": "FbjDcUxPqpfNr0QF4QvE6sExbcJUCYdIVisPtbeywENfScyc6nTW0F+D7rX5HCm9c3SL03FsmGsmXS04XZMlbxEVW4/ZgwONbnobxj8KxeRpXqDxCWghfAf9JSR025yi92eOKqE9HokX9QQnl1WsU21CR4+dlEMDEsADd1xFGiiGtsh0vqJFAf41Z7sYL00hBBNM3xJsYyXCuX4BrzNYpZRwmcnwnXIHe2MtwbsJf0IAs6yM+y/ub+niyxOc2YuPbc/VUS4DGPqzelIi6plLWFvZ8+j2xcvAgopZxZFhBkIYCIIC5Uec/JW8RgW9WV1SKntGcmcd5yjIpagsmpXymH3a+FKzHKMB3LvXmR6onijWkP0VpivFgVVfjWrik4Yr0ZjZxKFA0uPQvy9l9EjPMNrQIj0sZjnpv7JmoMO+HfQ+lqKhJrQFq4MooyyGv6yhNv12IOHay3A="
    },
    {
        "key": "全集网",
        "name": "👙全集┃站点",
        "type": 3,"searchable": 1,"quickSearch": 1,"changeable": 1,
        "jar":"./PantyHose/spider/JunYu.jar",
        "api": "csp_XBPQ",
        "ext": "./PantyHose/lib/全集网.json"
    },
    {
      "key": "csp_Free",
      "name": "🎖FreeOK┃追剧",
      "type": 3,
      "api": "csp_XBPQ","jar":"./PantyHose/spider/HCCX.jar",
      "searchable": 1,
      "quickSearch": 1,
      "filterable": 1,
      "ext": "./PantyHose/lib/Free影视.json"
    },
    {
      "key":"csp_Xinsj2",
      "name":"✨视觉1┃站点",
      "type":3,"searchable":1,"quickSearch":1,"filterable":1,
      "api":"csp_Xinsj",
      "ext":"https://www.6080yy3.com/"
    },
    {
      "key": "csp_xBPQ_视觉",
      "name": "🌺视觉2┃追剧",
      "type": 3,
      "api": "csp_XBPQ","jar":"./PantyHose/spider/HCCX.jar",
      "searchable": 1,
      "quickSearch": 1,
      "filterable": 1,
      "ext": "./PantyHose/lib/新视觉影视.json"
    },
    {
        "key": "天堂",
        "name": "🎡天堂┃快线",
        "type": 3,"searchable": 1,"quickSearch": 1,"changeable": 1,
        "api": "csp_XBPQ",
        "jar":"./PantyHose/spider/JunYu.jar",
        "ext": "./PantyHose/lib/电影天堂.json"
    },
    {
      "key": "csp_xBPQ_玖八",
      "name": "🎐玖八┃追剧",
      "type": 3,
      "api": "csp_XBPQ","jar":"./PantyHose/spider/HCCX.jar",
      "searchable": 1,
      "quickSearch": 1,
      "filterable": 1,
      "ext": "./PantyHose/lib/98影视.json"
    },
    {
      "key": "csp_星辰",
      "name": "☪️星辰┃追剧",
      "type": 3,
      "api": "csp_XBPQ","jar":"./PantyHose/spider/HCCX.jar",
      "searchable": 1,
      "quickSearch": 1,
      "filterable": 1,
      "ext": "./PantyHose/lib/星辰影视.json"
    },
    {
      "key": "csp_TVB",
      "name": "🔆TVB┃追剧",
      "type": 3,
      "api": "csp_XBPQ","jar":"./PantyHose/spider/HCCX.jar",
      "searchable": 1,
      "quickSearch": 1,
      "filterable": 1,
      "ext": "./PantyHose/lib/TVB云播.json"
    },
    {
      "key": "csp_七新",
      "name": "🍵七新┃追剧",
      "type": 3,
      "api": "csp_XBPQ","jar":"./PantyHose/spider/HCCX.jar",
      "searchable": 1,
      "quickSearch": 1,
      "filterable": 1,
      "ext": "./PantyHose/lib/七新影视.json"
    },
    {
      "key": "csp_超前",
      "name": "🍷超前┃追剧",
      "type": 3,
      "api": "csp_XBPQ","jar":"./PantyHose/spider/HCCX.jar",
      "searchable": 1,
      "quickSearch": 1,
      "filterable": 1,
      "ext": "./PantyHose/lib/超前B站.json"
    },
    {
      "key": "drpy_js_爱看机器人",
      "name": "🤖机器人┃站点",
      "type": 3,
      "api": "./PantyHose/frame/drpy2.min.js",
      "ext": "./PantyHose/lib/ikanbot2.js"
    },
    {
      "key": "贱贱",
      "name": "🤨荐片┃App",
      "type": 3,"searchable": 1,"quickSearch": 1,"changeable": 1,"playerType": "1",
      "api": "./PantyHose/frame/drpy2.min.js",
      "ext": "./PantyHose/lib/jp.js"
    },
    {
        "key": "drpy_js_看了么",
        "name": "👁看吗┃站点",
        "type": 3,
        "api": "./PantyHose/frame/drpy2.min.js",
        "ext": "./PantyHose/lib/看了么.js"
    },
    {
      "key": "Czsapp",
      "name": " 🏭厂长┃站点",
      "type": 3,"playerType": 2,"searchable": 1,"quickSearch": 1,"changeable": 1,
      "api": "csp_Czsapp",
      "ext": "https://www.czzy55.com/"
    },
    {
      "key": "drpy_js_影探",
      "name": "📹影探┃站点",
      "type": 3,
      "api": "./PantyHose/frame/drpy2.min.js",
      "ext": "./PantyHose/lib/影探v2.js"
    },    
    {
      "key": "csp_玖摇",
      "name": "🐥玖摇┃追剧",
      "type": 3,
      "api": "csp_XBPQ","jar":"./PantyHose/spider/HCCX.jar",
      "searchable": 1,
      "quickSearch": 1,
      "filterable": 1,
      "ext": "./PantyHose/lib/91影视.json"
    },
    {
      "key": "csp_不卡",
      "name": "🐔不卡┃追剧",
      "type": 3,
      "api": "csp_XBPQ","jar":"./PantyHose/spider/HCCX.jar",
      "searchable": 1,
      "quickSearch": 1,
      "filterable": 1,
      "ext": "./PantyHose/lib/真不卡影视.json"
    },
    {
      "key": "csp_午舞",
      "name": "🐤午舞┃追剧",
      "type": 3,
      "api": "csp_XBPQ","jar":"./PantyHose/spider/HCCX.jar",
      "searchable": 1,
      "quickSearch": 1,
      "filterable": 1,
      "ext": "./PantyHose/lib/五五影视.json"
    },
    {
        "key": "drpy_碟调影视",
        "name": "📀碟调┃站点",
        "type": 3,
        "api": "./PantyHose/frame/drpy2.min.js",
        "ext": "./PantyHose/lib/碟调影视.js"
    },
    {
      "key": "drpy_视中影视",
      "name": "👓视中┃站点",
      "type": 3,
      "api": "./PantyHose/frame/drpy2.min.js",
      "ext": "./PantyHose/lib/视中心影视.js"
    },
    {
      "key": "csp_土豪",
      "name": "💰土豪┃快线",
      "type": 3,
      "api": "csp_XBPQ",
      "searchable": 1,
      "quickSearch": 1,
      "filterable": 1,
      "jar":"./PantyHose/spider/HCCX.jar",
      "ext": "./PantyHose/lib/土豪影视.json"
    },
    {
      "key": "csp_xBPQ_奇优",
      "name": "🎗️奇优┃站点",
      "type": 3,
      "api": "csp_XBPQ",
      "searchable": 1,
      "quickSearch": 1,
      "filterable": 1,
      "jar":"./PantyHose/spider/HCCX.jar",
      "ext": "./PantyHose/lib/奇优影视.json"
    },
    {
      "key": "csp_好戏",
      "name": "👠好戏┃站点",
      "type": 3,
      "api": "csp_XBPQ",
      "searchable": 1,
      "quickSearch": 1,
      "filterable": 1,
      "jar":"./PantyHose/spider/HCCX.jar",
      "ext": "./PantyHose/lib/好戏影视.json"
    },
    {
      "key": "csp_佳能",
      "name": "🍀佳能┃追剧",
      "type": 3,
      "api": "csp_XBPQ","jar":"./PantyHose/spider/HCCX.jar",
      "searchable": 1,
      "quickSearch": 1,
      "filterable": 1,
      "ext": "./PantyHose/lib/348影视.json"
    },
    {
      "key": "csp_觅知",
      "name": "🐚觅知┃追剧",
      "type": 3,
      "api": "csp_XBPQ","jar":"./PantyHose/spider/HCCX.jar",
      "searchable": 1,
      "quickSearch": 1,
      "filterable": 1,
      "ext": "./PantyHose/lib/觅知影视.json"
    },
    {
      "key": "csp_达龟",
      "name": "🐳达龟┃追剧",
      "type": 3,
      "api": "csp_XBPQ","jar":"./PantyHose/spider/HCCX.jar",
      "searchable": 1,
      "quickSearch": 1,
      "filterable": 1,
      "ext": "./PantyHose/lib/达达龟影视.json"
    },
    {
      "key": "csp_七年",
      "name": "🐋七年┃追剧",
      "type": 3,
      "api": "csp_XBPQ","jar":"./PantyHose/spider/HCCX.jar",
      "searchable": 1,
      "quickSearch": 1,
      "filterable": 1,
      "ext": "./PantyHose/lib/七年影视.json"
    },
    {
      "key": "csp_苹果",
      "name": "🍏苹果┃追剧",
      "type": 3,
      "api": "csp_XBPQ","jar":"./PantyHose/spider/HCCX.jar",
      "searchable": 1,
      "quickSearch": 1,
      "filterable": 1,
      "ext": "./PantyHose/lib/苹果影视.json"
    },
    {
      "key": "csp_米爱",
      "name": "🐰米爱┃追剧",
      "type": 3,
      "api": "csp_XBPQ","jar":"./PantyHose/spider/HCCX.jar",
      "searchable": 1,
      "quickSearch": 1,
      "filterable": 1,
      "ext": "./PantyHose/lib/米爱影视.json"
    },
    {
      "key": "csp_量子",
      "name": "🔹量子┃追剧",
      "type": 3,
      "api": "csp_XBPQ","jar":"./PantyHose/spider/HCCX.jar",
      "searchable": 1,
      "quickSearch": 1,
      "filterable": 1,
      "ext": "./PantyHose/lib/量子资源网.json"
    },
    {
      "key": "drpy_js_短剧网",
      "name": "🗡短剧┃快线",
      "type": 3,
      "api": "./PantyHose/frame/drpy2.min.js",
      "ext": "./PantyHose/lib/短剧网.js"
    },
    {
      "key": "dr_迷迷剧",
      "name": "😱迷迷剧┃站点",
      "type": 3,
      "api": "./PantyHose/frame/drpy2.min.js",
      "ext": "./PantyHose/lib/mimiju.js" 
    },
    {
      "key": "csp_聚短视频",
      "name": "📽️聚短┃快线",
      "type": 3,
      "api": "./PantyHose/frame/drpy2.min.js",
      "ext": "./PantyHose/lib/短视频.js",
      "searchable": 0,
      "quickSearch": 0,
      "changeable": 0
    },
    {
      "key": "csp_农民",
      "name": "🌠农民┃追剧",
      "type": 3,
      "api": "csp_XBPQ","jar":"./PantyHose/spider/HCCX.jar",
      "searchable": 1,
      "quickSearch": 1,
      "filterable": 1,
      "ext": "./PantyHose/lib/农民影视.json"
    },
    {
      "key": "MTV",
      "name": "🎧明星┃MV",
      "type": 3,
      "api": "csp_Bili",
      "style": {"type": "rect","ratio": 1.597},
      "searchable": 0,
      "quickSearch": 0,
      "changeable": 0,
      "ext": "./PantyHose/lib/MTV.json"
    },
    {
      "key": "Bili",
      "name": "🅱哔哩┃合集",
      "type": 3,
      "api": "csp_Bili",
      "style": {
                "type": "rect",
                "ratio": 1.597
                },
      "searchable": 1,
      "quickSearch": 0,
      "changeable": 0,
      "ext": "./PantyHose/lib/bilibili.json"
    },
    {
      "key": "戏曲杂苑",
      "name": "🅱哔哩┃戏曲",
      "type": 3,"searchable": 0,"quickSearch": 1,"filterable": 1,
      "api": "csp_Bili",
      "ext": "./PantyHose/lib/哔哩戏曲.json"
    },
    {
      "key": "相声小品",
      "name": "🅱哔哩┃小品",
      "type": 3,"searchable": 0,"quickSearch": 1,"filterable": 1,
      "api": "csp_Bili",
      "ext": "./PantyHose/lib/哔哩相声.json"
    },
    {
      "key": "Biliych",
      "name": "🅱哔哩┃歌曲",
      "type": 3,
      "api": "csp_Bili",
      "style": {
                "type": "rect",
                "ratio": 1.597
                },
      "searchable": 1,
      "quickSearch": 0,
      "changeable": 0,
      "ext": "./PantyHose/lib/biliych.json"
    },
    {
      "key": "dr_兔小贝",
      "name": "📚儿童┃启蒙",
      "type": 3,
      "api": "./PantyHose/frame/drpy2.min.js",
      "ext": "./PantyHose/lib/兔小贝.js",
      "style": {
                "type": "rect",
                "ratio": 1.597
                },
      "searchable": 0,
      "quickSearch": 0,
      "changeable": 0
    },
    {
      "key": "少儿教育",
      "name": "📚少儿┃教育",
      "type": 3,
      "api": "csp_Bili",
      "style": {
                "type": "rect",
                "ratio": 1.597
                },
      "searchable": 0,
      "quickSearch": 0,
      "changeable": 0,
      "ext": "./PantyHose/lib/少儿教育.json"
    },
    {
      "key": "小学课堂",
      "name": "📚小学┃课堂",
      "type": 3,
      "api": "csp_Bili",
      "style": {
                "type": "rect",
                "ratio": 1.597
                },
      "searchable": 0,
      "quickSearch": 0,
      "changeable": 0,
      "ext": "./PantyHose/lib/小学课堂.json"
    },
    {
      "key": "初中课堂",
      "name": "📚初中┃课堂",
      "type": 3,
      "api": "csp_Bili",
      "style": {
                  "type": "rect",
                  "ratio": 1.597
                },
      "searchable": 0,
      "quickSearch": 0,
      "changeable": 0,
      "ext": "./PantyHose/lib/初中课堂.json"
    },
    {
      "key": "高中教育",
      "name": "📚高中┃课堂",
      "type": 3,
      "api": "csp_Bili",
      "style": {
                  "type": "rect",
                  "ratio": 1.597
                },
      "searchable": 0,
      "quickSearch": 0,
      "changeable": 0,
      "ext": "./PantyHose/lib/高中课堂.json"
    },
    {
      "key": "Aid",
      "name": "🚑急救┃教学",
      "type": 3,
      "api": "csp_FirstAid",
      "searchable": 0,
      "quickSearch": 0,
      "changeable": 0,
      "style": {
                  "type": "rect",
                  "ratio": 3.8
                }
    },
    {
      "key": "drpy_js_优酷",
      "name": "🏆优酷┃大厂",
      "type": 3,
      "api": "./PantyHose/frame/drpy2.min.js",
      "ext": "./PantyHose/lib/优酷.js"
    },
    {
      "key": "drpy_js_腾云驾雾",
      "name": "🐧腾讯┃大厂",
      "type": 3,
      "api": "./PantyHose/frame/drpy2.min.js",
      "ext": "./PantyHose/lib/腾云驾雾.js"
    },
    {
      "key": "drpy_js_百忙无果",
      "name": "🥭芒果┃大厂",
      "type": 3,
      "api": "./PantyHose/frame/drpy2.min.js",
      "ext": "./PantyHose/lib/百忙无果.js"
    },
    {
      "key": "drpy_js_360影视",
      "name": "🕒360┃大厂",
      "type": 3,
      "api": "./PantyHose/frame/drpy2.min.js",
      "ext": "./PantyHose/lib/360影视.js"
    },
    {
      "key": "drpy_js_豆瓣",
      "name": "🥔豆瓣┃大厂",
      "type": 3,
      "api": "./PantyHose/frame/drpy2.min.js",
      "ext": "./PantyHose/frame/drpy.js"
    },
    {
      "key": "七夜",
      "name": "🔎七夜┃搜索",
      "type": 3,"searchable": 1,"quickSearch": 1,"changeable": 0,
      "api": "csp_Dovx",
      //"ext": "http://127.0.0.1:9978/file/tvbox/token.txt"
      "ext": "./PantyHose/frame/token.txt"

      
    },
    {
      "key": "YiSo",
      "name": "🔎易搜┃搜索",
      "type": 3,
      "api": "csp_YiSo",
      "searchable": 1,
      "quickSearch": 1,
      "changeable": 0,
      //"ext": "http://127.0.0.1:9978/file/tvfan/token.txt+4k┃auto┃fhd"
      "ext": "./PantyHose/frame/token.txt"
    },
    {
      "key": "Zhaozy",
      "name": "🔎找资源┃搜索",
      "type": 3,
      "api": "csp_Zhaozy",
      "searchable": 1,
      "quickSearch": 1,
      "changeable": 0,
      //"ext": "http://127.0.0.1:9978/file/tvfan/token.txt+4k┃auto┃fhd$$$fanty$$$qqq111"
      "ext": "./PantyHose/frame/token.txt"
    },
    {
      "key": "PanSou",
      "name": "🔎盘搜┃搜索",
      "type": 3,
      "api": "csp_PanSou",
      "searchable": 1,
      "quickSearch": 1,
      "changeable": 0,
      //"ext": "http://127.0.0.1:9978/file/tvfan/token.txt+4k┃auto┃fhd"
      "ext": "./PantyHose/frame/token.txt"
    },
    {
      "key": "UpYun",
      "name": "🔎Up搜┃搜索",
      "type": 3,
      "api": "csp_UpYun",
      "searchable": 1,
      "quickSearch": 1,
      "changeable": 0,
      //"ext": "http://127.0.0.1:9978/file/tvfan/token.txt+4k┃auto┃fhd"
      "ext": "./PantyHose/frame/token.txt"
    },
    {
      "key": "PanSearch",
      "name": "🔎盘Se┃搜索",
      "type": 3,
      "api": "csp_PanSearch",
      "searchable": 1,
      "quickSearch": 1,
      "changeable": 0,
      //"ext": "http://127.0.0.1:9978/file/tvfan/token.txt+4k┃auto┃fhd"
      "ext": "./PantyHose/frame/token.txt"
    },
    {
      "key": "光年影视",
      "name": "GNTV┃TEST",
      "type": 3,"searchable": 1,"quickSearch": 0,"changeable": 1,
      "api": "csp_XBPQ",
      "jar": "./PantyHose/spider/HCCX.jar",
      "ext": "./PantyHose/lib/光年.json"
    },
    {
      "key": "hamster",
      "name": "Hamster┃TEST",
      "type": 3,"searchable": 1,"quickSearch": 0,"changeable": 1,
      "api": "csp_XBPQ",
      "jar": "./PantyHose/spider/HCCX.jar",
      "ext":"./PantyHose/lib/hamster.json"    
    },
    {
      "key": "BBV",
      "name": "BBV┃TEST",
      "type": 3,"searchable": 1,"quickSearch": 1,"changeable": 1,
      "api": "csp_XBPQ",
      "jar":"./PantyHose/spider/JunYu.jar",
      "ext": "./PantyHose/lib/bondage.json"
    },
    {
      "key": "bdgvl",
      "name": "Valley┃TEST",
      "type": 3,"searchable": 1,"quickSearch": 0,"changeable": 1,
      "api": "csp_XBPQ",
      "jar": "./PantyHose/spider/HCCX.jar",
      "ext": "./PantyHose/lib/vally.json"    
    }




  ],



//=======================================以下内容保留不动======================================

  "doh": [
    {
      "name": "Google",
      "url": "https://dns.google/dns-query",
      "ips": [
        "8.8.4.4",
        "8.8.8.8"
      ]
    },
    {
      "name": "Cloudflare",
      "url": "https://cloudflare-dns.com/dns-query",
      "ips": [
        "1.1.1.1",
        "1.0.0.1",
        "2606:4700:4700::1111",
        "2606:4700:4700::1001"
      ]
    },
    {
      "name": "AdGuard",
      "url": "https://dns.adguard.com/dns-query",
      "ips": [
        "94.140.14.140",
        "94.140.14.141"
      ]
    },
    {
      "name": "DNSWatch",
      "url": "https://resolver2.dns.watch/dns-query",
      "ips": [
        "84.200.69.80",
        "84.200.70.40"
      ]
    },
    {
      "name": "Quad9",
      "url": "https://dns.quad9.net/dns-quer",
      "ips": [
        "9.9.9.9",
        "149.112.112.112"
      ]
    }
  ],
  "rules": [
    {
      "name": "hwk",
      "hosts": [
        "haiwaikan"
      ],
      "regex": [
        "10.0099",
        "10.3333",
        "16.0599",
        "8.1748",
        "12.33",
        "10.85"
      ]
    },
    {
      "name": "yqk",
      "hosts": [
        "yqk88"
      ],
      "regex": [
        "18.4",
        "15.1666"
      ]
    },
    {
      "name": "sn",
      "hosts": [
        "suonizy"
      ],
      "regex": [
        "#EXTINF.*?\\s+.*?original.*?\\.ts\\s+",
        "15.1666",
        "15.2666",
        "16.3333",
        "15.266667"
      ]
    },
    {
      "name": "bf",
      "hosts": [
        "bfzy"
      ],
      "regex": [
        "#EXT-X-DISCONTINUITY\\r*\\n*#EXTINF:3,[\\s\\S]*?#EXT-X-DISCONTINUITY"
      ]
    },
    {
      "name": "xx",
      "hosts": [
        "aws.ulivetv.net"
      ],
      "regex": [
        "#EXT-X-DISCONTINUITY\\r*\\n*#EXTINF:8,[\\s\\S]*?#EXT-X-DISCONTINUITY"
      ]
    },
    {
      "name": "lz",
      "hosts": [
        "lz"
      ],
      "regex": [
        "18.5333",
        "19.52"
      ]
    },
    {
      "name": "ff",
      "hosts": [
        "vip.ffzy",
        "hd.ffzy",
        "ffzy"
      ],
      "regex": [
        "25.0666",
        "25.08",
        "20.52",
        "25.1",
        "25.1999"
      ]
    },
    {
      "name": "hs",
      "hosts": [
        "huoshan.com"
      ],
      "regex": [
        "item_id="
      ]
    },
    {
      "name": "dy",
      "hosts": [
        "douyin.com"
      ],
      "regex": [
        "is_play_url="
      ]
    },
    {
      "name": "nm",
      "hosts": [
        "toutiaovod.com"
      ],
      "regex": [
        "video/tos/cn"
      ]
    },
    {
      "name": "cl",
      "hosts": [
        "magnet"
      ],
      "regex": [
        "最 新",
        "直 播",
        "更 新"
      ]
    }
  ],
  "parses": [
              {"name":"解析聚合","type":3,"url":"Demo"},
              {"name":"Json并发","type":2,"url":"Parallel"},
              {"name":"Json轮询","type":2,"url":"Sequence"},
              {"name":"m3u8tv高清","type": 0,"url": "https://jx.m3u8.tv/jiexi/?url="},
              {"name":"zui","type":0,"url":"https://jx.zui.cm/?url=","ext":{"flag":["ltnb"]}},
              {"name":"BL","type":0,"url":"https://vip.bljiex.com/?v=","ext":{"flag":["ltnb"]}},
              {"name": "777","type": 0,"url": "https://jx.777jiexi.com/player/?url="},
              {"name": "杰森","type": 0,"url": "https://jx.jsonplayer.com/player/?url="},
              {"name": "虾米","type": 0,"url": "https://jx.xmflv.com/?url="},
              {"name": "26db","type": 0,"url": "http://vip.26db.cn/g/?url="},
              {"name": "看看","type": 0,"url": "https://jx.xmflv.cc/?url="},
              {"name": "神秘哥哥","type": 1,"url": "http://api.888484.xyz/神秘哥哥/super.php?v=",
               "ext": {"flag": ["qq","腾讯","qiyi","爱奇艺","奇艺","youku","优酷","tucheng","sohu","搜狐","letv","乐视","mgtv","芒果",
                            "tnmb","seven","yzm","aliyun","RJuMao","bilibili","1905","xinvip","XAL","qiqi","XALS","YuMi-vip"]}},
              {"name": "免费分享","type": 0, "url": "https://jx.xmflv.com/?url=",
               "ext": {"flag": ["qq","腾讯","qiyi","爱奇艺","奇艺","youku","优酷","mgtv","芒果","imgo",
                  "letv","乐视","pptv","PPTV","sohu","bilibili","哔哩哔哩","哔哩"],
                "header": {"User-Agent": "okhttp/4.1.0"}}
              }

  ],
  "ijk":[
      {"group":"软解码",
          "options":
              [
                {"category":4,"name":"opensles","value":"0"},
                {"category":4,"name":"overlay-format","value":"842225234"},
                {"category":4,"name":"framedrop","value":"1"},
                {"category":4,"name":"soundtouch","value":"1"},
                {"category":4,"name":"start-on-prepared","value":"1"},
                {"category":1,"name":"http-detect-range-support","value":"0"},
                {"category":1,"name":"fflags","value":"fastseek"},
                {"category":2,"name":"skip_loop_filter","value":"48"},
                {"category":4,"name":"reconnect","value":"1"},
                {"category":4,"name":"enable-accurate-seek","value":"0"},
                {"category":4,"name":"mediacodec","value":"0"},
                {"category":4,"name":"mediacodec-auto-rotate","value":"0"},
                {"category":4,"name":"mediacodec-handle-resolution-change","value":"0"},
                {"category":4,"name":"mediacodec-hevc","value":"0"},
                {"category":1,"name":"dns_cache_timeout","value":"600000000"}
              ]
      },
     {"group":"硬解码",
          "options":
              [
                {"category":4,"name":"opensles","value":"0"},
                {"category":4,"name":"overlay-format","value":"842225234"},
                {"category":4,"name":"framedrop","value":"1"},
                {"category":4,"name":"soundtouch","value":"1"},
                {"category":4,"name":"start-on-prepared","value":"1"},
                {"category":1,"name":"http-detect-range-support","value":"0"},
                {"category":1,"name":"fflags","value":"fastseek"},
                {"category":2,"name":"skip_loop_filter","value":"48"},
                {"category":4,"name":"reconnect","value":"1"},
                {"category":4,"name":"enable-accurate-seek","value":"0"},
                {"category":4,"name":"mediacodec","value":"1"},
                {"category":4,"name":"mediacodec-auto-rotate","value":"1"},
                {"category":4,"name":"mediacodec-handle-resolution-change","value":"1"},
                {"category":4,"name":"mediacodec-hevc","value":"1"},
                {"category":1,"name":"dns_cache_timeout","value":"600000000"}
              ]
      }
  ],
  "flags":[
    "youku","qq","iqiyi","qiyi","letv","le","sohu","tudou","pptv","mgtv","wasu","bilibili","renrenmi","CL4K","腾讯","PPTV",
    "ltnb","爱奇艺","奇艺","优酷","芒果","哔哩哔哩","哔哩","miaoparty","rx","rongxing","xfyun","rrm3u8","xueren",
    "zijian","1905","m1905","dbm3u8","leduo","duoduozy","fuckapp","ftqp2","ftqp3","ftqp4","ftqp5","longteng", "ziqie",
    "wuduzy","xuanfeng","xigua"
  ],
  "ads":[
    "mimg.0c1q0l.cn","www.googletagmanager.com","www.google-analytics.com","mc.usihnbcq.cn","mg.g1mm3d.cn","mscs.svaeuzh.cn",
    "cnzz.hhttm.top","tp.vinuxhome.com","cnzz.mmstat.com","www.baihuillq.com","s23.cnzz.com","z3.cnzz.com","c.cnzz.com","stj.v1vo.top",
    "z12.cnzz.com","img.mosflower.cn","tips.gamevvip.com","ehwe.yhdtns.com","xdn.cqqc3.com","www.jixunkyy.cn","sp.chemacid.cn",
    "hm.baidu.com","s9.cnzz.com","z6.cnzz.com","um.cavuc.com","mav.mavuz.com","wofwk.aoidf3.com","z5.cnzz.com","xc.hubeijieshikj.cn",
    "tj.tianwenhu.com","xg.gars57.cn","k.jinxiuzhilv.com","cdn.bootcss.com","ppl.xunzhuo123.com","xomk.jiangjunmh.top",
    "img.xunzhuo123.com","z1.cnzz.com","s13.cnzz.com","xg.huataisangao.cn","z7.cnzz.com","xg.huataisangao.cn","z2.cnzz.com",
    "s96.cnzz.com","q11.cnzz.com","thy.dacedsfa.cn","xg.whsbpw.cn","s19.cnzz.com","z8.cnzz.com","s4.cnzz.com","f5w.as12df.top",
    "ae01.alicdn.com","www.92424.cn","k.wudejia.com","vivovip.mmszxc.top","qiu.xixiqiu.com","cdnjs.hnfenxun.com","cms.qdwght.com"
  ]
}
